{
  "blocks": {
    "page": [],
    "btn": [],
    "logo": [],
    "page-header": [],
    "page-footer": [],
    "breadcrumbs": [],
    "hamburger": [],
    "main-nav": [],
    "promo": [],
    "testimonials": [],
    "testimonial-card": [],
    "main-slider": [],
    "projects": [],
    "project-card": [],
    "support": [],
    "useful-info": [],
    "service-page": [],
    "call-back": [],
    "all-services": [],
    "get-call-modal": [],
    "section": [],
    "mobile-menu": [],
    "video": []
  },
  "addCssBefore": [
    "./src/scss/reset.scss",
    "./src/scss/mixins.scss",
    "./src/scss/variables.scss",
    "./src/scss/fonts.scss",
    "./src/scss/global.scss",
    "./src/scss/typography.scss"
  ],
  "addCssAfter": [
    "./src/scss/print.scss"
  ],
  "singleCompiled": [],
  "addJsBefore": [],
  "addJsAfter": [
    "./src/js/script.js"
  ],
  "copiedCss": [],
  "copiedJs": [],
  "addImages": [
    "./src/img/*.{jpg,jpeg,gif,png,svg,ico}"
  ],
  "directories": {
    "source": "./src/",
    "build": "./dist/",
    "blocksDirName": "blocks"
  }
}